<?xml version="1.0" standalone="no"?>
<!DOCTYPE svg PUBLIC "-//W3C//DTD SVG 20010904//EN"
 "http://www.w3.org/TR/2001/REC-SVG-20010904/DTD/svg10.dtd">
<svg version="1.0" xmlns="http://www.w3.org/2000/svg"
 width="260.000000pt" height="260.000000pt" viewBox="0 0 260.000000 260.000000"
 preserveAspectRatio="xMidYMid meet">
<metadata>
Created by potrace 1.11, written by Peter Selinger 2001-2013
</metadata>
<g transform="translate(0.000000,260.000000) scale(0.100000,-0.100000)"
fill="#000000" stroke="none">
<path d="M2392 2138 c-48 -53 -56 -137 -21 -238 l20 -59 -21 -40 c-11 -23 -25
-41 -31 -41 -15 0 -39 64 -39 103 0 18 -5 38 -12 45 -15 15 -58 16 -58 2 0 -5
-7 -10 -16 -10 -9 0 -31 -9 -49 -20 -110 -68 -68 -286 47 -241 29 11 68 48 68
63 0 9 3 9 12 0 21 -21 55 -13 82 19 14 17 27 35 27 40 1 5 3 14 4 19 1 6 3
15 4 22 1 7 8 5 20 -6 22 -20 78 -24 109 -7 47 25 76 103 52 141 -11 18 -21 9
-35 -32 -13 -39 -34 -53 -68 -44 -37 9 -42 40 -21 122 24 95 23 152 -1 170
-27 20 -48 17 -73 -8z m48 -53 c0 -7 -5 -37 -11 -66 -8 -36 -14 -47 -20 -38
-12 19 -11 76 1 100 13 22 30 25 30 4z m-197 -272 c17 -56 6 -99 -26 -109 -26
-8 -47 18 -47 60 0 33 33 96 50 96 5 0 16 -21 23 -47z"/>
<path d="M150 2110 c-40 -7 -80 -27 -80 -39 0 -5 27 -11 60 -13 33 -2 62 -7
66 -10 3 -4 -11 -33 -32 -65 -88 -137 -117 -235 -73 -246 36 -10 47 2 77 81
43 110 92 212 103 212 5 0 26 -7 46 -15 48 -20 70 -19 83 5 12 23 4 28 -85 58
-98 33 -128 38 -165 32z"/>
<path d="M323 1933 c-7 -3 -13 -18 -13 -35 0 -17 -14 -59 -31 -94 -17 -37 -29
-76 -27 -92 3 -23 8 -27 33 -27 27 0 31 4 41 46 15 61 31 89 51 89 16 0 16 -3
-12 -79 -14 -40 -14 -45 1 -68 16 -26 34 -27 101 -7 16 4 23 1 28 -16 11 -33
103 -57 120 -30 9 15 35 12 35 -5 0 -22 30 -34 63 -24 17 5 33 7 35 4 2 -2 -1
-27 -8 -55 -16 -65 -7 -100 24 -100 21 0 26 11 55 112 32 114 64 171 99 180
33 9 45 -6 38 -45 -7 -39 -29 -62 -68 -72 -20 -5 -27 -13 -25 -26 5 -31 20
-39 77 -44 45 -3 62 0 96 20 l42 25 11 -30 c8 -26 15 -30 45 -30 23 0 45 9 66
26 17 15 32 25 33 23 2 -2 8 -16 15 -31 18 -42 72 -36 126 13 19 18 20 18 34
-2 32 -47 120 -56 161 -17 31 28 87 35 111 13 25 -23 100 -24 134 -1 42 27 48
48 26 90 -16 33 -17 40 -4 64 18 34 18 56 0 71 -36 30 -118 4 -135 -42 -12
-32 4 -65 51 -107 l42 -37 -26 -5 c-34 -6 -43 0 -60 40 l-13 34 -24 -21 c-33
-29 -43 -26 -38 8 6 33 -16 71 -40 71 -12 0 -13 3 -4 14 16 19 2 27 -51 31
-70 6 -113 -26 -143 -107 -13 -35 -26 -51 -50 -62 -18 -9 -35 -16 -38 -16 -6
0 0 120 6 126 2 3 14 6 26 9 47 9 60 45 16 45 -22 0 -23 3 -15 24 6 16 5 29
-3 41 -17 22 -42 11 -57 -24 -6 -16 -23 -34 -37 -40 -23 -10 -24 -13 -11 -34
20 -33 11 -72 -25 -106 -54 -54 -74 -40 -48 35 18 51 19 110 1 128 -16 16 -39
-13 -55 -69 -20 -67 -81 -125 -132 -125 -14 0 -11 6 14 25 87 69 54 187 -48
171 -33 -5 -44 -3 -54 10 -19 27 -44 10 -70 -49 -21 -49 -73 -107 -96 -107
-18 0 -9 61 16 107 30 57 18 92 -29 84 -5 -1 -22 3 -39 9 -51 17 -98 -3 -151
-64 -43 -51 -80 -75 -93 -62 -3 3 8 27 25 54 17 28 30 56 28 63 -4 29 -18 40
-46 36 -33 -6 -46 2 -51 27 -5 22 -39 46 -56 39z m357 -137 c0 -21 -37 -105
-52 -118 -29 -26 -56 -23 -64 6 -11 45 44 109 96 113 11 1 20 1 20 -1z m1133
-50 c3 -8 0 -21 -6 -30 -11 -15 -15 -15 -32 -2 -16 12 -17 16 -6 30 17 20 37
21 44 2z m-267 -41 c-29 -27 -33 -57 -12 -97 12 -23 12 -27 0 -32 -17 -6 -46
3 -56 18 -28 40 10 121 60 129 15 2 29 5 31 6 2 0 -8 -10 -23 -24z m54 -56 c0
-10 -4 -19 -9 -19 -12 0 -23 29 -15 41 8 14 24 0 24 -22z"/>
<path d="M1165 1910 c-13 -15 -16 -29 -12 -56 9 -51 19 -58 50 -34 32 25 36
69 9 93 -23 21 -25 21 -47 -3z"/>
<path d="M2435 1625 c-73 -56 -182 -122 -217 -130 -26 -7 -28 -5 -28 21 0 36
-14 59 -30 49 -8 -5 -10 -25 -8 -56 l5 -48 -67 -25 c-97 -36 -140 -42 -140
-22 0 24 -19 19 -32 -9 -6 -14 -17 -25 -25 -25 -7 0 -19 11 -25 25 -16 36 -42
33 -35 -4 8 -36 4 -38 -118 -47 -49 -3 -93 -8 -97 -11 -12 -7 -294 -6 -383 2
-44 3 -109 11 -145 17 -36 6 -71 11 -78 11 -10 0 -12 10 -7 34 8 45 -19 45
-35 1 l-11 -33 -20 24 c-10 13 -19 29 -19 37 0 8 -7 14 -16 14 -13 0 -15 -7
-11 -29 7 -35 25 -37 -198 18 -195 49 -229 59 -197 60 39 2 27 31 -14 31 -25
0 -41 7 -53 22 -20 24 -45 16 -36 -12 5 -17 -5 -15 -96 15 -117 40 -119 40
-119 21 0 -11 55 -46 73 -46 2 0 21 -7 42 -16 l37 -15 -54 -57 c-47 -49 -91
-123 -111 -184 -4 -10 -31 -31 -61 -48 -60 -34 -106 -76 -106 -96 0 -27 22
-60 57 -84 33 -22 47 -25 135 -26 l98 0 32 -37 c39 -43 104 -67 171 -62 88 6
96 34 42 146 -39 83 -40 89 -20 144 16 46 20 164 6 213 -11 38 -20 38 144 -8
55 -16 117 -32 137 -35 21 -4 38 -9 38 -12 0 -3 -11 -18 -24 -34 -13 -15 -27
-46 -31 -68 -11 -67 9 -115 82 -189 71 -72 93 -112 86 -152 -6 -38 -36 -62
-86 -67 -40 -5 -47 -3 -62 20 -11 18 -14 37 -10 65 16 107 16 110 -5 117 -49
16 -121 -68 -122 -143 -1 -70 2 -81 32 -116 37 -42 86 -60 161 -59 135 2 238
95 241 218 1 52 -22 102 -67 145 -19 19 -35 37 -35 42 0 4 14 15 31 23 40 21
61 72 53 127 -4 23 -3 39 2 36 34 -20 465 -29 614 -14 l85 9 -28 -33 c-52 -62
-102 -187 -112 -280 -9 -86 -13 -96 -41 -109 -15 -6 -28 -10 -31 -8 -2 3 0 22
5 43 18 80 -23 139 -94 136 -19 -1 -46 -9 -59 -19 -49 -36 -57 -135 -15 -181
27 -28 26 -30 -15 -38 -73 -13 -108 15 -107 87 1 91 61 154 157 164 33 4 63 9
67 11 34 21 -38 56 -113 55 -145 0 -239 -97 -240 -248 -2 -155 183 -224 324
-120 20 15 47 25 72 25 22 1 52 7 67 13 25 10 30 8 55 -21 49 -59 131 -79 207
-50 57 21 126 109 126 159 0 37 -21 33 -66 -13 -68 -68 -139 -75 -169 -16 -31
61 -22 82 98 211 108 116 149 208 117 259 -7 12 9 20 93 47 76 24 104 29 110
20 50 -74 119 -246 158 -395 31 -123 60 -171 94 -159 14 6 13 10 -7 38 -17 24
-20 33 -10 36 7 3 25 16 40 28 23 20 25 24 10 30 -9 4 -26 2 -37 -5 -18 -9
-21 -8 -21 9 0 44 80 180 139 235 17 17 31 38 31 48 0 24 -32 88 -44 89 -124
8 -185 20 -266 56 l-54 24 79 45 c122 70 205 138 205 170 0 22 -14 17 -75 -31z
m-1971 -174 c34 -28 41 -152 16 -254 -11 -43 -19 -52 -69 -84 -31 -19 -68 -46
-82 -59 -32 -31 -53 -24 -67 24 -6 20 -25 64 -41 97 -28 57 -29 61 -15 95 36
86 99 169 147 193 30 16 85 9 111 -12z m1852 -128 c50 -112 95 -254 85 -271
-9 -15 -10 -15 -17 3 -28 80 -118 302 -126 313 -8 9 -5 12 11 12 16 0 27 -14
47 -57z m-1335 -33 c26 -14 25 -70 -2 -104 -21 -26 -22 -26 -41 -9 -23 21 -48
66 -48 86 0 14 34 35 58 36 7 1 22 -4 33 -9z m905 -70 c-28 -43 -46 -66 -84
-109 l-23 -26 6 30 c9 45 50 127 75 153 20 21 24 22 38 8 14 -13 13 -19 -12
-56z m-1709 -36 c2 -5 -12 -17 -30 -27 -18 -10 -47 -32 -66 -49 -25 -23 -35
-28 -41 -18 -13 21 -4 32 57 73 55 36 73 41 80 21z m297 -91 c3 -4 -11 -18
-33 -32 -21 -14 -53 -36 -70 -49 -29 -22 -31 -22 -31 -4 0 20 51 65 92 82 29
11 33 12 42 3z m1044 -141 c-4 -45 -23 -52 -36 -14 -12 34 1 64 24 55 10 -4
14 -16 12 -41z"/>
<path d="M936 555 c-20 -20 -11 -42 25 -61 34 -17 38 -40 8 -49 -14 -5 -25 -1
-34 12 -8 10 -15 13 -15 7 -1 -31 49 -45 70 -19 16 20 5 50 -25 63 -26 12 -33
36 -14 47 5 4 20 -1 31 -12 21 -18 21 -18 9 5 -14 26 -33 28 -55 7z"/>
<path d="M1011 563 c-2 -22 21 -118 30 -127 4 -5 11 4 14 20 22 95 21 93 29
39 9 -57 14 -68 26 -60 5 3 2 18 -6 33 -7 15 -14 38 -14 52 0 21 -18 64 -21
50 0 -3 -3 -16 -5 -30 -2 -14 -8 -38 -13 -55 l-8 -30 -7 40 c-8 43 -24 88 -25
68z"/>
<path d="M1127 555 c-3 -11 -8 -38 -11 -60 -5 -37 -5 -36 9 10 8 28 13 55 11
60 -1 6 -6 1 -9 -10z"/>
<path d="M1189 558 c-4 -66 -3 -112 3 -121 4 -7 8 15 8 48 l1 60 23 -53 c22
-52 37 -65 45 -41 2 8 -1 9 -10 3 -11 -6 -12 -5 -2 7 13 16 15 79 2 79 -4 0
-6 -10 -4 -21 3 -12 1 -28 -4 -36 -5 -11 -13 -2 -25 31 -18 47 -35 68 -37 44z"/>
<path d="M1250 560 c0 -5 5 -10 11 -10 5 0 7 5 4 10 -3 6 -8 10 -11 10 -2 0
-4 -4 -4 -10z"/>
<path d="M1283 550 c3 -14 9 -44 13 -68 8 -52 21 -63 30 -25 21 94 20 92 29
38 5 -27 8 -53 7 -57 -1 -5 2 -8 8 -8 5 0 12 12 16 28 3 15 10 44 16 66 5 21
7 40 4 43 -3 3 -8 -8 -12 -23 -21 -95 -20 -93 -29 -44 -11 66 -22 82 -30 45
-22 -96 -21 -95 -30 -45 -5 25 -9 48 -9 52 -1 3 -5 10 -10 15 -5 4 -6 -3 -3
-17z"/>
<path d="M1427 563 c-2 -5 -5 -36 -6 -70 l-2 -63 38 0 c25 0 33 3 24 9 -7 5
-21 6 -32 4 -15 -4 -18 0 -16 23 2 19 8 29 19 29 9 0 20 4 24 8 4 4 -5 7 -19
7 -27 0 -38 22 -17 35 6 3 10 10 10 16 0 11 -17 12 -23 2z"/>
<path d="M1536 562 c-10 -17 -36 -105 -35 -122 0 -8 4 -5 9 8 11 25 60 32 60
8 0 -8 4 -17 10 -21 5 -3 2 17 -6 46 -24 82 -30 94 -38 81z m18 -44 c9 -34 8
-38 -12 -38 -15 0 -18 6 -14 30 5 36 17 39 26 8z"/>
<path d="M1599 561 c-3 -24 1 -124 5 -129 3 -3 6 9 6 27 0 28 3 32 22 29 16
-2 24 -12 28 -33 5 -26 6 -27 12 -9 3 12 2 28 -2 35 -5 7 -6 27 -3 46 3 18 2
33 -3 34 -45 5 -64 5 -65 0z m59 -34 c-2 -12 -12 -21 -25 -23 -18 -3 -23 1
-23 19 0 30 6 36 31 30 13 -4 19 -12 17 -26z"/>
<path d="M1152 520 c0 -22 3 -40 6 -40 4 0 8 18 8 40 0 22 -3 40 -7 40 -4 0
-7 -18 -7 -40z"/>
<path d="M1150 448 c0 -12 3 -18 7 -14 11 10 12 36 2 36 -5 0 -9 -10 -9 -22z"/>
</g>
</svg>
