<?xml version="1.0" encoding="UTF-8"?>
<!DOCTYPE svg PUBLIC "-//W3C//DTD SVG 1.1//EN" "http://www.w3.org/Graphics/SVG/1.1/DTD/svg11.dtd">
<!-- Creator: CorelDRAW X8 -->
<svg xmlns="http://www.w3.org/2000/svg" xml:space="preserve" width="1280px" height="519px" version="1.1" style="shape-rendering:geometricPrecision; text-rendering:geometricPrecision; image-rendering:optimizeQuality; fill-rule:evenodd; clip-rule:evenodd"
viewBox="0 0 75464027 30583552"
 xmlns:xlink="http://www.w3.org/1999/xlink">
 <defs>
  <style type="text/css">
   <![CDATA[
    .fil0 {fill:#49B7C7}
    .fil1 {fill:#52C5D2}
   ]]>
  </style>
 </defs>
 <g id="Layer_x0020_1">
  <metadata id="CorelCorpID_0Corel-Layer"/>
  <g id="_2122921413888">
   <polygon class="fil0" points="0,30583552 75464027,30583552 75464027,0 0,0 "/>
   <path class="fil1" d="M1526434 30583552l1070962 0 309729 -278952c481376,-433607 110857,-266069 -468772,-257156l-211407 -474551c-263562,-591676 -218718,-187593 -389460,366411l-516540 54383c-644318,67823 -246015,149921 228049,483604l-22561 106261zm3063035 0l1070892 0 309729 -278952c481376,-433607 110926,-266069 -468772,-257156l-211407 -474551c-263562,-591676 -218649,-187593 -389460,366411l-516471 54383c-644318,67823 -246014,149921 228050,483604l-22561 106261zm3062965 0l1070961 0 309730 -278952c481376,-433607 110856,-266069 -468772,-257156l-211407 -474551c-263563,-591676 -218649,-187593 -389390,366411l-516611 54383c-644318,67823 -246015,149921 228050,483604l-22561 106261zm3063034 0l1070892 0 309730 -278952c481376,-433607 110995,-266069 -468772,-257156l-211338 -474551c-263632,-591676 -218649,-187593 -389459,366411l-516541 54383c-644318,67823 -246015,149921 228049,483604l-22561 106261zm3063035 0l1070822 0 309869 -278952c481306,-433607 110856,-266069 -468911,-257156l-211268 -474551c-263632,-591676 -218719,-187593 -389460,366411l-516541 54383c-644318,67823 -246084,149921 228050,483604l-22561 106261zm3063034 0l1070823 0 309799 -278952c481376,-433607 110926,-266069 -468842,-257156l-211337 -474551c-263632,-591676 -218649,-187593 -389460,366411l-516541 54383c-644248,67823 -246014,149921 228119,483604l-22561 106261zm3062965 0l1070892 0 309730 -278952c481445,-433607 110926,-266069 -468842,-257156l-211268 -474551c-263632,-591676 -218718,-187593 -389459,366411l-516541 54383c-644318,67823 -246085,149921 228049,483604l-22561 106261zm3063035 0l1070892 0 309729 -278952c481376,-433607 110857,-266069 -468772,-257156l-211407 -474551c-263562,-591676 -218649,-187593 -389459,366411l-516541 54383c-644248,67823 -245945,149921 228119,483604l-22561 106261zm3062965 0l1070892 0 309729 -278952c481446,-433607 110926,-266069 -468772,-257156l-211337 -474551c-263563,-591676 -218719,-187593 -389460,366411l-516541 54383c-644318,67823 -246014,149921 228050,483604l-22561 106261zm3063034 0l1070892 0 309730 -278952c481376,-433607 110856,-266069 -468772,-257156l-211407 -474551c-263563,-591676 -218580,-187593 -389460,366411l-516541 54383c-644248,67823 -246015,149921 228119,483604l-22561 106261zm3062965 0l1070892 0 309730 -278952c481445,-433607 110995,-266069 -468772,-257156l-211268 -474551c-263632,-591676 -218719,-187593 -389460,366411l-516610 54383c-644318,67823 -246015,149921 228049,483604l-22561 106261zm3063104 0l1070823 0 309799 -278952c481306,-433607 110856,-266069 -468842,-257156l-211337 -474551c-263632,-591676 -218649,-187593 -389460,366411l-516541 54383c-644248,67823 -246084,149921 228120,483604l-22562 106261zm3062965 0l1070823 0 309799 -278952c481445,-433607 110926,-266069 -468842,-257156l-211268 -474551c-263632,-591676 -218718,-187593 -389459,366411l-516541 54383c-644318,67823 -246084,149921 228049,483604l-22561 106261zm3063035 0l1070892 0 309729 -278952c481376,-433607 110857,-266069 -468841,-257156l-211338 -474551c-263632,-591676 -218649,-187593 -389459,366411l-516541 54383c-644248,67823 -246085,149921 228119,483604l-22561 106261zm3062965 0l1070892 0 309729 -278952c481446,-433607 110926,-266069 -468772,-257156l-211337 -474551c-263702,-591676 -218719,-187593 -389460,366411l-516541 54383c-644317,67823 -246014,149921 228050,483604l-22561 106261zm3063034 0l1070893 0 309729 -278952c481376,-433607 110856,-266069 -468772,-257156l-211407 -474551c-263563,-591676 -218649,-187593 -389460,366411l-516541 54383c-644248,67823 -246014,149921 228119,483604l-22561 106261zm3062965 0l1070892 0 309730 -278952c481445,-433607 110926,-266069 -468772,-257156l-211338 -474551c-263632,-591676 -218718,-187593 -389529,366411l-516471 54383c-644318,67823 -246015,149921 228049,483604l-22561 106261zm3063035 0l1070892 0 309729 -278952c481376,-433607 110926,-266069 -468772,-257156l-211337 -474551c-263632,-591676 -218649,-187593 -389460,366411l-516610 54383c-644248,67823 -246015,149921 228119,483604l-22561 106261zm3062965 0l1070892 0 309799 -278952c481376,-433607 110926,-266069 -468842,-257156l-211268 -474551c-263701,-591676 -218718,-187593 -389529,366411l-516471 54383c-644318,67823 -246084,149921 227980,483604l-22561 106261zm3063104 0l1070822 0 309800 -278952c481375,-433607 110856,-266069 -468842,-257156l-211338 -474551c-263632,-591676 -218649,-187593 -389459,366411l-516541 54383c-644248,67823 -246084,149921 228119,483604l-22561 106261zm3062965 0l1070822 0 309799 -278952c481446,-433607 110926,-266069 -468841,-257156l-211268 -474551c-263702,-591676 -218719,-187593 -389529,366411l-516471 54383c-644318,67823 -246085,149921 228049,483604l-22561 106261zm3063034 0l1070893 0 309729 -278952c481376,-433607 110856,-266069 -468772,-257156l-211407 -474551c-263632,-591676 -218649,-187593 -389460,366411l-516540 54383c-644249,67823 -246085,149921 228119,483604l-22562 106261zm3062965 0l1070893 0 309729 -278952c481445,-433607 110926,-266069 -468772,-257156l-211338 -474551c-263632,-591676 -218718,-187593 -389529,366411l-516471 54383c-644318,67823 -246015,149921 228049,483604l-22561 106261zm3063035 0l1070892 0 309730 -278952c481375,-433607 110856,-266069 -468773,-257156l-211407 -474551c-263562,-591676 -218649,-187593 -389459,366411l-516541 54383c-644248,67823 -246015,149921 228119,483604l-22561 106261zm3062965 0l425390 0 0 -1100278c-27505,118656 -60024,279787 -114407,456030l-516471 54383c-644318,67823 -246015,149921 228049,483604l-22561 106261zm425390 -2749475l0 -365088 -38855 -83073c-78964,-169279 -65456,-53757 -116636,104659l-154795 15598c-193094,19497 -73742,42824 68380,138361l-32380 145325c-40387,181117 19985,80148 158973,-19358l115313 63576zm-75464027 734145l0 74786c56264,37811 160644,90245 272615,167190l-60442 277907c-75343,346496 37324,153333 297056,-37045l251795 142052c314255,177147 160922,12673 55846,-287308l216142 -190029c269481,-237102 62043,-145604 -262518,-140660l-118307 -259454c-147623,-323656 -122416,-102709 -218092,200266l-289258 29803c-67614,6894 -114686,14205 -144837,22492zm0 1441202l0 144002c92612,-102291 81889,-137595 0,-144002zm73981810 -1693763l118447 259454c324492,-4944 531999,-96442 262448,140660l-216072 190029c105007,299981 258270,464455 -55846,287308l-251934 -142052c-259663,190378 -372330,383541 -297056,37045l60581 -277907c-265443,-182370 -488548,-227423 -127847,-264468l289257 -29803c95677,-302975 70400,-523922 218022,-200266zm-3055374 0l118307 259454c324631,-4944 531999,-96442 262518,140660l-216073 190029c105007,299981 258340,464455 -55846,287308l-251864 -142052c-259663,190378 -372399,383541 -296986,37045l60372 -277907c-265443,-182370 -488409,-227423 -127708,-264468l289257 -29803c95677,-302975 70469,-523922 218023,-200266zm-3055445 0l118446 259454c324492,-4944 531930,-96442 262518,140660l-216142 190029c104938,299981 258271,464455 -55846,287308l-251933 -142052c-259663,190378 -372330,383541 -296987,37045l60512 -277907c-265513,-182370 -488479,-227423 -127778,-264468l289188 -29803c95607,-302975 70538,-523922 218022,-200266zm-3055375 0l118447 259454c324491,-4944 531860,-96442 262378,140660l-216072 190029c105077,299981 258340,464455 -55846,287308l-251864 -142052c-259733,190378 -372260,383541 -296987,37045l60372 -277907c-265442,-182370 -488408,-227423 -127707,-264468l289257 -29803c95607,-302975 70399,-523922 218022,-200266zm-3055444 0l118446 259454c324492,-4944 531999,-96442 262448,140660l-216072 190029c105007,299981 258340,464455 -55846,287308l-251934 -142052c-259593,190378 -372330,383541 -296917,37045l60442 -277907c-265442,-182370 -488478,-227423 -127847,-264468l289257 -29803c95746,-302975 70539,-523922 218023,-200266zm-3055306 0l118377 259454c324492,-4944 531860,-96442 262379,140660l-216073 190029c105008,299981 258410,464455 -55776,287308l-251864 -142052c-259733,190378 -372399,383541 -297056,37045l60442 -277907c-265513,-182370 -488479,-227423 -127708,-264468l289257 -29803c95537,-302975 70330,-523922 218022,-200266zm-3055444 0l118377 259454c324561,-4944 531929,-96442 262518,140660l-216142 190029c105076,299981 258339,464455 -55846,287308l-251934 -142052c-259594,190378 -372260,383541 -296917,37045l60442 -277907c-265443,-182370 -488479,-227423 -127847,-264468l289327 -29803c95676,-302975 70469,-523922 218022,-200266zm-3055445 0l118447 259454c324492,-4944 531929,-96442 262448,140660l-216003 190029c104938,299981 258201,464455 -55915,287308l-251934 -142052c-259663,190378 -372330,383541 -296987,37045l60442 -277907c-265442,-182370 -488478,-227423 -127707,-264468l289187 -29803c95607,-302975 70469,-523922 218022,-200266zm-3055305 0l118307 259454c324562,-4944 531930,-96442 262449,140660l-216073 190029c105007,299981 258410,464455 -55846,287308l-251794 -142052c-259733,190378 -372469,383541 -297056,37045l60441 -277907c-265442,-182370 -488478,-227423 -127847,-264468l289258 -29803c95746,-302975 70538,-523922 218161,-200266zm-3055514 0l118446 259454c324492,-4944 532000,-96442 262449,140660l-216073 190029c105007,299981 258271,464455 -55846,287308l-251864 -142052c-259732,190378 -372399,383541 -297056,37045l60511 -277907c-265442,-182370 -488478,-227423 -127777,-264468l289257 -29803c95607,-302975 70400,-523922 217953,-200266zm-3055375 0l118447 259454c324491,-4944 531860,-96442 262378,140660l-216003 190029c105008,299981 258271,464455 -55846,287308l-251933 -142052c-259663,190378 -372261,383541 -296987,37045l60372 -277907c-265442,-182370 -488339,-227423 -127638,-264468l289188 -29803c95676,-302975 70469,-523922 218022,-200266zm-3055444 0l118446 259454c324561,-4944 531930,-96442 262518,140660l-216142 190029c105007,299981 258270,464455 -55846,287308l-251934 -142052c-259593,190378 -372330,383541 -296917,37045l60442 -277907c-265512,-182370 -488478,-227423 -127777,-264468l289187 -29803c95677,-302975 70539,-523922 218023,-200266zm-3055306 0l118377 259454c324492,-4944 531930,-96442 262379,140660l-216073 190029c105077,299981 258410,464455 -55776,287308l-251864 -142052c-259733,190378 -372330,383541 -297056,37045l60442 -277907c-265443,-182370 -488479,-227423 -127778,-264468l289257 -29803c95677,-302975 70400,-523922 218092,-200266zm-3055514 0l118447 259454c324491,-4944 531999,-96442 262448,140660l-216073 190029c105008,299981 258340,464455 -55776,287308l-252003 -142052c-259594,190378 -372330,383541 -296847,37045l60372 -277907c-265443,-182370 -488479,-227423 -127778,-264468l289258 -29803c95676,-302975 70469,-523922 217952,-200266zm-3055305 0l118446 259454c324422,-4944 531860,-96442 262449,140660l-216073 190029c104938,299981 258271,464455 -55915,287308l-251864 -142052c-259733,190378 -372330,383541 -297057,37045l60512 -277907c-265512,-182370 -488479,-227423 -127778,-264468l289258 -29803c95537,-302975 70399,-523922 218022,-200266zm-3055445 0l118377 259454c324562,-4944 531930,-96442 262518,140660l-216142 190029c105077,299981 258340,464455 -55846,287308l-251934 -142052c-259593,190378 -372260,383541 -296917,37045l60442 -277907c-265512,-182370 -488478,-227423 -127847,-264468l289327 -29803c95676,-302975 70469,-523922 218022,-200266zm-3055374 0l118376 259454c324492,-4944 532000,-96442 262449,140660l-216003 190029c104937,299981 258270,464455 -55916,287308l-251864 -142052c-259663,190378 -372399,383541 -297056,37045l60511 -277907c-265442,-182370 -488548,-227423 -127847,-264468l289258 -29803c95676,-302975 70538,-523922 218092,-200266zm-3055375 0l118307 259454c324561,-4944 531929,-96442 262448,140660l-216072 190029c105007,299981 258409,464455 -55777,287308l-251864 -142052c-259732,190378 -372469,383541 -297056,37045l60442 -277907c-265443,-182370 -488478,-227423 -127777,-264468l289257 -29803c95676,-302975 70469,-523922 218092,-200266zm-3055445 0l118377 259454c324492,-4944 531999,-96442 262518,140660l-216142 190029c105077,299981 258270,464455 -55846,287308l-251864 -142052c-259733,190378 -372330,383541 -297056,37045l60511 -277907c-265443,-182370 -488478,-227423 -127777,-264468l289257 -29803c95676,-302975 70469,-523922 218022,-200266zm-3055444 0l118446 259454c324492,-4944 531860,-96442 262379,140660l-216003 190029c105007,299981 258270,464455 -55776,287308l-252004 -142052c-259663,190378 -372260,383541 -296986,37045l60372 -277907c-265443,-182370 -488339,-227423 -127638,-264468l289187 -29803c95677,-302975 70469,-523922 218023,-200266zm-3055375 0l118377 259454c324561,-4944 531999,-96442 262517,140660l-216142 190029c105008,299981 258410,464455 -55846,287308l-251864 -142052c-259593,190378 -372399,383541 -296986,37045l60442 -277907c-265443,-182370 -488479,-227423 -127778,-264468l289188 -29803c95746,-302975 70539,-523922 218092,-200266zm-3055375 0l118377 259454c324491,-4944 531999,-96442 262378,140660l-216072 190029c105077,299981 258409,464455 -55777,287308l-251864 -142052c-259732,190378 -372329,383541 -297056,37045l60442 -277907c-265373,-182370 -488478,-227423 -127708,-264468l289258 -29803c95606,-302975 70329,-523922 218022,-200266zm-3055445 0l118377 259454c324561,-4944 531999,-96442 262518,140660l-216072 190029c105007,299981 258270,464455 -55846,287308l-252004 -142052c-259593,190378 -372260,383541 -296847,37045l60372 -277907c-265442,-182370 -488409,-227423 -127777,-264468l289257 -29803c95676,-302975 70469,-523922 218022,-200266zm-3055375 0l118447 259454c324492,-4944 531860,-96442 262448,140660l-216072 190029c104937,299981 258270,464455 -55916,287308l-251864 -142052c-259733,190378 -372330,383541 -297056,37045l60511 -277907c-265512,-182370 -488478,-227423 -127777,-264468l289257 -29803c95537,-302975 70400,-523922 218022,-200266zm68790361 -929745l63436 135646c173597,-2507 284662,-50484 140451,73602l-115731 99367c56264,156815 138362,242812 -29872,150200l-134811 -74230c-138918,99506 -199221,200475 -158903,19358l32379 -145325c-142121,-95537 -261403,-118864 -68449,-138361l154795 -15598c51250,-158416 37811,-273938 116705,-104659zm-2927249 0l63436 135646c173596,-2507 284661,-50484 140381,73602l-115661 99367c56264,156815 138292,242812 -29873,150200l-134740 -74230c-138989,99506 -199291,200475 -158974,19358l32310 -145325c-142052,-95537 -261334,-118864 -68380,-138361l154795 -15598c51251,-158416 37742,-273938 116706,-104659zm-2927249 0l63436 135646c173596,-2507 284661,-50484 140450,73602l-115661 99367c56194,156815 138292,242812 -29873,150200l-134880 -74230c-138988,99506 -199221,200475 -158833,19358l32310 -145325c-142122,-95537 -261474,-118864 -68380,-138361l154795 -15598c51250,-158416 37741,-273938 116636,-104659zm-2927180 0l63366 135646c173596,-2507 284662,-50484 140520,73602l-115730 99367c56194,156815 138292,242812 -29873,150200l-134880 -74230c-138919,99506 -199221,200475 -158903,19358l32310 -145325c-142053,-95537 -261474,-118864 -68380,-138361l154795 -15598c51319,-158416 37741,-273938 116775,-104659zm-2927319 0l63366 135646c173666,-2507 284731,-50484 140520,73602l-115661 99367c56195,156815 138292,242812 -29872,150200l-134880 -74230c-138919,99506 -199222,200475 -158904,19358l32380 -145325c-142052,-95537 -261474,-118864 -68380,-138361l154795 -15598c51180,-158416 37672,-273938 116636,-104659zm-2927180 0l63297 135646c173735,-2507 284731,-50484 140590,73602l-115731 99367c56264,156815 138362,242812 -29803,150200l-134880 -74230c-138988,99506 -199291,200475 -159043,19358l32449 -145325c-142121,-95537 -261473,-118864 -68449,-138361l154795 -15598c51320,-158416 37811,-273938 116775,-104659zm-2927180 0l63297 135646c173666,-2507 284731,-50484 140451,73602l-115592 99367c56194,156815 138222,242812 -29942,150200l-134810 -74230c-138919,99506 -199291,200475 -158974,19358l32310 -145325c-142052,-95537 -261403,-118864 -68310,-138361l154725 -15598c51320,-158416 37811,-273938 116845,-104659zm-2927319 0l63367 135646c173665,-2507 284661,-50484 140520,73602l-115661 99367c56264,156815 138292,242812 -29943,150200l-134810 -74230c-138919,99506 -199291,200475 -158903,19358l32310 -145325c-142122,-95537 -261404,-118864 -68380,-138361l154795 -15598c51250,-158416 37741,-273938 116705,-104659zm-2927180 0l63297 135646c173736,-2507 284662,-50484 140520,73602l-115661 99367c56195,156815 138292,242812 -29872,150200l-134950 -74230c-138849,99506 -199221,200475 -158903,19358l32379 -145325c-142122,-95537 -261404,-118864 -68380,-138361l154726 -15598c51250,-158416 37811,-273938 116844,-104659zm-2927388 0l63436 135646c173666,-2507 284731,-50484 140450,73602l-115521 99367c56124,156815 138152,242812 -30012,150200l-134811 -74230c-138918,99506 -199291,200475 -158903,19358l32310 -145325c-141983,-95537 -261404,-118864 -68311,-138361l154726 -15598c51180,-158416 37671,-273938 116636,-104659zm-2927250 0l63506 135646c173666,-2507 284661,-50484 140451,73602l-115661 99367c56194,156815 138292,242812 -29873,150200l-134880 -74230c-138919,99506 -199291,200475 -158834,19358l32240 -145325c-142052,-95537 -261403,-118864 -68310,-138361l154795 -15598c51181,-158416 37672,-273938 116566,-104659zm-2927179 0l63366 135646c173666,-2507 284801,-50484 140520,73602l-115591 99367c56124,156815 138222,242812 -30012,150200l-134811 -74230c-138988,99506 -199221,200475 -158903,19358l32380 -145325c-142122,-95537 -261404,-118864 -68450,-138361l154795 -15598c51250,-158416 37811,-273938 116706,-104659zm-2927250 0l63367 135646c173735,-2507 284731,-50484 140520,73602l-115592 99367c56125,156815 138223,242812 -30012,150200l-134810 -74230c-138988,99506 -199221,200475 -158834,19358l32310 -145325c-142052,-95537 -261473,-118864 -68310,-138361l154725 -15598c51181,-158416 37742,-273938 116636,-104659zm-2927180 0l63367 135646c173735,-2507 284661,-50484 140450,73602l-115661 99367c56195,156815 138292,242812 -29872,150200l-134880 -74230c-138989,99506 -199222,200475 -158834,19358l32310 -145325c-142122,-95537 -261474,-118864 -68311,-138361l154726 -15598c51180,-158416 37741,-273938 116705,-104659zm-2927249 0l63297 135646c173735,-2507 284800,-50484 140590,73602l-115661 99367c56124,156815 138152,242812 -30012,150200l-134741 -74230c-138988,99506 -199291,200475 -158904,19358l32241 -145325c-141983,-95537 -261404,-118864 -68241,-138361l154725 -15598c51181,-158416 37672,-273938 116706,-104659zm-2927249 0l63366 135646c173735,-2507 284661,-50484 140520,73602l-115730 99367c56263,156815 138291,242812 -29873,150200l-134810 -74230c-138919,99506 -199222,200475 -158904,19358l32240 -145325c-141982,-95537 -261404,-118864 -68310,-138361l154795 -15598c51181,-158416 37741,-273938 116706,-104659zm-2927250 0l63297 135646c173735,-2507 284801,-50484 140590,73602l-115661 99367c56124,156815 138222,242812 -29943,150200l-134740 -74230c-139058,99506 -199430,200475 -159043,19358l32310 -145325c-142052,-95537 -261404,-118864 -68380,-138361l154795 -15598c51250,-158416 37811,-273938 116775,-104659zm-2927180 0l63297 135646c173666,-2507 284731,-50484 140520,73602l-115661 99367c56195,156815 138223,242812 -30012,150200l-134740 -74230c-138919,99506 -199291,200475 -158904,19358l32241 -145325c-141983,-95537 -261404,-118864 -68311,-138361l154726 -15598c51319,-158416 37811,-273938 116844,-104659zm-2927249 0l63297 135646c173666,-2507 284661,-50484 140520,73602l-115731 99367c56194,156815 138292,242812 -29803,150200l-134880 -74230c-138918,99506 -199360,200475 -158903,19358l32310 -145325c-141983,-95537 -261474,-118864 -68380,-138361l154795 -15598c51180,-158416 37741,-273938 116775,-104659zm-2927249 0l63227 135646c173805,-2507 284800,-50484 140590,73602l-115661 99367c56124,156815 138222,242812 -29873,150200l-134810 -74230c-138989,99506 -199361,200475 -159043,19358l32379 -145325c-142052,-95537 -261403,-118864 -68380,-138361l154795 -15598c51251,-158416 37811,-273938 116776,-104659zm-2927250 0l63367 135646c173665,-2507 284591,-50484 140450,73602l-115661 99367c56194,156815 138292,242812 -29873,150200l-134880 -74230c-138849,99506 -199290,200475 -158903,19358l32310 -145325c-141983,-95537 -261474,-118864 -68310,-138361l154725 -15598c51181,-158416 37811,-273938 116775,-104659zm-2927249 0l63366 135646c173666,-2507 284662,-50484 140451,73602l-115661 99367c56124,156815 138292,242812 -29873,150200l-134810 -74230c-138919,99506 -199361,200475 -158973,19358l32310 -145325c-142122,-95537 -261404,-118864 -68311,-138361l154726 -15598c51250,-158416 37811,-273938 116775,-104659zm-2927250 0l63297 135646c173666,-2507 284801,-50484 140590,73602l-115731 99367c56194,156815 138362,242812 -29872,150200l-134880 -74230c-138919,99506 -199222,200475 -158904,19358l32380 -145325c-142122,-95537 -261474,-118864 -68380,-138361l154725 -15598c51320,-158416 37811,-273938 116775,-104659zm-2927249 0l63366 135646c173666,-2507 284662,-50484 140451,73602l-115661 99367c56264,156815 138292,242812 -29873,150200l-134880 -74230c-138849,99506 -199221,200475 -158903,19358l32379 -145325c-142121,-95537 -261543,-118864 -68380,-138361l154726 -15598c51250,-158416 37741,-273938 116775,-104659zm-2927249 0l63366 135646c173666,-2507 284731,-50484 140451,73602l-115661 99367c56194,156815 138291,242812 -29873,150200l-134810 -74230c-138989,99506 -199291,200475 -158904,19358l32380 -145325c-142192,-95537 -261544,-118864 -68380,-138361l154725 -15598c51181,-158416 37672,-273938 116706,-104659zm71655218 -921320l36349 77642c99297,-1393 162803,-28829 80357,42197l-66221 56891c32170,89688 79243,138849 -17060,85928l-77085 -42546c-79521,56960 -114059,114686 -91011,11071l18523 -83212c-81332,-54523 -149573,-67962 -39134,-79034l88504 -8982c29385,-90663 21586,-156745 66778,-59955zm-2972650 0l36279 77642c99437,-1393 162873,-28829 80357,42197l-66082 56891c32101,89688 79104,138849 -17130,85928l-77154 -42546c-79451,56960 -113920,114686 -90941,11071l18523 -83212c-81263,-54523 -149573,-67962 -39065,-79034l88504 -8982c29316,-90663 21587,-156745 66709,-59955zm-2788957 0l36279 77642c99436,-1393 162942,-28829 80426,42197l-66151 56891c32101,89688 79103,138849 -17130,85928l-77154 -42546c-79452,56960 -113990,114686 -90941,11071l18522 -83212c-81262,-54523 -149572,-67962 -39134,-79034l88504 -8982c29386,-90663 21656,-156745 66779,-59955zm-2861864 0l36279 77642c99367,-1393 162803,-28829 80357,42197l-66152 56891c32101,89688 79104,138849 -17060,85928l-77154 -42546c-79521,56960 -113990,114686 -90941,11071l18522 -83212c-81331,-54523 -149572,-67962 -39203,-79034l88574 -8982c29385,-90663 21586,-156745 66778,-59955zm-2750102 0l36349 77642c99297,-1393 162872,-28829 80357,42197l-66152 56891c32101,89688 79173,138849 -17130,85928l-77084 -42546c-79521,56960 -114060,114686 -91011,11071l18522 -83212c-81331,-54523 -149572,-67962 -39133,-79034l88504 -8982c29385,-90663 21656,-156745 66778,-59955zm-2466694 0l36349 77642c99367,-1393 162803,-28829 80357,42197l-66152 56891c32101,89688 79103,138849 -17130,85928l-77154 -42546c-79452,56960 -113920,114686 -90941,11071l18522 -83212c-81262,-54523 -149572,-67962 -39064,-79034l88504 -8982c29316,-90663 21587,-156745 66709,-59955zm-2976202 0l36349 77642c99367,-1393 162803,-28829 80357,42197l-66152 56891c32101,89688 79104,138849 -17060,85928l-77223 -42546c-79452,56960 -113921,114686 -90942,11071l18523 -83212c-81262,-54523 -149573,-67962 -39065,-79034l88505 -8982c29315,-90663 21586,-156745 66708,-59955zm-2976132 0l36279 77642c99367,-1393 162803,-28829 80357,42197l-66152 56891c32101,89688 79104,138849 -17060,85928l-77223 -42546c-79452,56960 -113920,114686 -90941,11071l18592 -83212c-81332,-54523 -149573,-67962 -39134,-79034l88504 -8982c29315,-90663 21586,-156745 66778,-59955zm-2976201 0l36279 77642c99366,-1393 162802,-28829 80357,42197l-66152 56891c32101,89688 79103,138849 -17060,85928l-77224 -42546c-79382,56960 -113920,114686 -90941,11071l18592 -83212c-81332,-54523 -149573,-67962 -39134,-79034l88504 -8982c29316,-90663 21586,-156745 66779,-59955zm-2976202 0l36279 77642c99367,-1393 162803,-28829 80357,42197l-66152 56891c32101,89688 79104,138849 -17060,85928l-77154 -42546c-79452,56960 -113990,114686 -90941,11071l18522 -83212c-81331,-54523 -149572,-67962 -39134,-79034l88504 -8982c29386,-90663 21587,-156745 66779,-59955zm-2976202 0l36279 77642c99367,-1393 162803,-28829 80357,42197l-66152 56891c32171,89688 79174,138849 -17060,85928l-77154 -42546c-79451,56960 -113990,114686 -90941,11071l18523 -83212c-81332,-54523 -149573,-67962 -39204,-79034l88574 -8982c29385,-90663 21586,-156745 66778,-59955zm-2976202 0l36279 77642c99367,-1393 162873,-28829 80357,42197l-66082 56891c32101,89688 79104,138849 -17129,85928l-77154 -42546c-79522,56960 -113990,114686 -90942,11071l18523 -83212c-81332,-54523 -149573,-67962 -39204,-79034l88574 -8982c29385,-90663 21656,-156745 66778,-59955zm-2976201 0l36279 77642c99367,-1393 162872,-28829 80357,42197l-66082 56891c32101,89688 79103,138849 -17130,85928l-77154 -42546c-79521,56960 -113920,114686 -90941,11071l18522 -83212c-81262,-54523 -149572,-67962 -39134,-79034l88574 -8982c29316,-90663 21586,-156745 66709,-59955zm-2976202 0l36349 77642c99297,-1393 162803,-28829 80287,42197l-66082 56891c32101,89688 79104,138849 -17130,85928l-77154 -42546c-79521,56960 -113920,114686 -90941,11071l18523 -83212c-81263,-54523 -149573,-67962 -39134,-79034l88573 -8982c29316,-90663 21587,-156745 66709,-59955zm-2976132 0l36279 77642c99297,-1393 162803,-28829 80287,42197l-66082 56891c32101,89688 79104,138849 -17060,85928l-77223 -42546c-79522,56960 -113990,114686 -90942,11071l18593 -83212c-81332,-54523 -149712,-67962 -39204,-79034l88574 -8982c29315,-90663 21586,-156745 66778,-59955zm-2976202 0l36279 77642c99298,-1393 162803,-28829 80357,42197l-66221 56891c32171,89688 79173,138849 -16991,85928l-77223 -42546c-79521,56960 -113990,114686 -90941,11071l18592 -83212c-81332,-54523 -149642,-67962 -39204,-79034l88574 -8982c29316,-90663 21586,-156745 66778,-59955zm-2976201 0l36279 77642c99297,-1393 162803,-28829 80357,42197l-66222 56891c32101,89688 79173,138849 -16990,85928l-77154 -42546c-79521,56960 -114060,114686 -90941,11071l18452 -83212c-81262,-54523 -149572,-67962 -39133,-79034l88573 -8982c29246,-90663 21587,-156745 66779,-59955zm-2976272 0l36349 77642c99297,-1393 162803,-28829 80357,42197l-66221 56891c32101,89688 79173,138849 -16991,85928l-77154 -42546c-79521,56960 -114059,114686 -90941,11071l18453 -83212c-81332,-54523 -149573,-67962 -39134,-79034l88504 -8982c29385,-90663 21656,-156745 66778,-59955zm-2976201 0l36348 77642c99298,-1393 162803,-28829 80357,42197l-66221 56891c32170,89688 79243,138849 -17060,85928l-77085 -42546c-79521,56960 -114059,114686 -91010,11071l18522 -83212c-81332,-54523 -149572,-67962 -39134,-79034l88504 -8982c29385,-90663 21726,-156745 66779,-59955zm-2976202 0l36349 77642c99366,-1393 162872,-28829 80357,42197l-66152 56891c32101,89688 79173,138849 -17130,85928l-77084 -42546c-79522,56960 -114060,114686 -91011,11071l18522 -83212c-81331,-54523 -149572,-67962 -39134,-79034l88504 -8982c29386,-90663 21726,-156745 66779,-59955zm-2976202 0l36419 77642c99297,-1393 162802,-28829 80287,42197l-66152 56891c32101,89688 79173,138849 -17130,85928l-77084 -42546c-79521,56960 -113990,114686 -91011,11071l18523 -83212c-81262,-54523 -149573,-67962 -39065,-79034l88504 -8982c29316,-90663 21587,-156745 66709,-59955zm-2976201 0l36348 77642c99367,-1393 162873,-28829 80357,42197l-66152 56891c32101,89688 79104,138849 -17129,85928l-77154 -42546c-79452,56960 -113920,114686 -90941,11071l18522 -83212c-81262,-54523 -149573,-67962 -39064,-79034l88504 -8982c29315,-90663 21586,-156745 66709,-59955zm-2976133 0l36279 77642c99367,-1393 162803,-28829 80357,42197l-66151 56891c32101,89688 79103,138849 -17060,85928l-77224 -42546c-79452,56960 -113920,114686 -90941,11071l18592 -83212c-81332,-54523 -149573,-67962 -39134,-79034l88504 -8982c29316,-90663 21586,-156745 66778,-59955zm-2976201 0l36279 77642c99367,-1393 162803,-28829 80426,42197l-66221 56891c32101,89688 79104,138849 -17060,85928l-77224 -42546c-79451,56960 -113920,114686 -90941,11071l18592 -83212c-81332,-54523 -149572,-67962 -39134,-79034l88504 -8982c29316,-90663 21587,-156745 66779,-59955zm-2976202 0l36279 77642c99367,-1393 162803,-28829 80427,42197l-66222 56891c32101,89688 79104,138849 -17060,85928l-77154 -42546c-79451,56960 -113990,114686 -90941,11071l18523 -83212c-81332,-54523 -149573,-67962 -39134,-79034l88504 -8982c29315,-90663 21586,-156745 66778,-59955zm-2976202 0l36279 77642c99367,-1393 162803,-28829 80357,42197l-66151 56891c32170,89688 79103,138849 -17061,85928l-77153 -42546c-79452,56960 -113990,114686 -90942,11071l18523 -83212c-81332,-54523 -149573,-67962 -39134,-79034l88504 -8982c29385,-90663 21586,-156745 66778,-59955z"/>
  </g>
 </g>
</svg>
