<?xml version="1.0" encoding="UTF-8"?>
<!DOCTYPE svg PUBLIC "-//W3C//DTD SVG 1.1//EN" "http://www.w3.org/Graphics/SVG/1.1/DTD/svg11.dtd">
<!-- Creator: CorelDRAW X8 -->
<svg xmlns="http://www.w3.org/2000/svg" xml:space="preserve" width="467px" height="250px" version="1.1" style="shape-rendering:geometricPrecision; text-rendering:geometricPrecision; image-rendering:optimizeQuality; fill-rule:evenodd; clip-rule:evenodd"
viewBox="0 0 24801580 13283915"
 xmlns:xlink="http://www.w3.org/1999/xlink">
 <defs>
  <style type="text/css">
   <![CDATA[
    .fil1 {fill:#3EAFB4}
    .fil0 {fill:white}
    .fil2 {fill:white;fill-rule:nonzero}
   ]]>
  </style>
 </defs>
 <g id="Layer_x0020_1">
  <metadata id="CorelCorpID_0Corel-Layer"/>
  <path class="fil0" d="M20051132 2223035c-210973,263576 -168540,473043 -380266,610574 -166846,-58189 -172432,-262697 -229052,-413787 -117382,-313290 -31385,-276631 -39169,-585151 -74572,-68295 -122529,-133577 -259370,-158497 -219259,-39859 -201871,15254 -264517,140042 -719042,49778 -1004148,758400 -855945,1335579 146382,569773 589671,684267 1016890,349509 160129,-125479 136778,-214865 242798,-338210 77271,63650 133640,173122 322643,146821 116378,-16257 216811,-112234 286487,-186304 180090,-191577 248260,-355033 263073,-679433 168415,77710 141486,230432 486915,244430 247569,10169 418620,-71433 561110,-195155 373927,-324589 363444,-948219 118512,-1004022 -118575,136589 -72501,636498 -456722,707429 -226541,41743 -373362,-163079 -406442,-309712 -77209,-342291 359803,-1116383 205010,-1624702 -136715,-449064 -738438,-332938 -903652,434689 -116565,541776 96793,1062462 291697,1525900zm-1399354 2504187l-74007 -527841c-8851,-91018 -184860,-74572 -222586,9541 -52037,286236 43249,466953 41994,667695 -238091,129873 -1139984,429668 -1445052,476871 1946,-124474 31386,-182726 -31950,-224657 -148830,-37160 -140984,34336 -200867,193021 -61830,163707 -68044,135774 -281591,138284 -41931,-139351 -124161,-436133 -283662,-376186 -141172,106020 42935,241166 39169,455906 -1254039,145001 -1631670,221958 -2962164,222586 -817592,376 -2153862,-101125 -2947915,-273494 3892,-100622 178019,-520936 -22158,-468397 -175445,46262 -126484,408451 -298351,414038 -246941,-64341 -171051,-603418 -400793,-469088 -124224,76455 29377,238404 32641,428914l-2638140 -638318c-69801,-20777 -259181,-79217 -323208,-100057 119140,-10546 246188,-24355 298037,-58754 88382,-58503 35905,-149897 -85180,-189003 -91332,-29315 -270920,32954 -430609,22848 -28687,-71433 -56118,-150901 -102066,-218380 -85055,-124789 -316994,-90014 -257424,78966 12052,34210 47267,132698 55866,184484 -167849,-56996 -577556,-193335 -923173,-313290 -302619,-105079 -551820,-204383 -605991,-138034 -118324,176512 227231,289186 736178,468460 106522,37537 232881,85306 330113,124350 -18957,89323 27807,30883 -96165,118511l-380832 333565c-143055,159941 -267781,340031 -400730,573225 -102568,179714 -210095,423767 -290504,647295 -63839,177391 -80222,164774 -230621,249954 -598459,339215 -1302248,688033 -736430,1225228 598899,568454 1395839,285168 1526780,286675 55175,502 291320,61139 352145,102944 58503,40299 133702,191263 211727,271485 441531,453897 2122539,684957 1589048,-361059 -783696,-1536697 -191012,-516354 -172872,-2185812 1695,-153538 -4331,-321513 -28435,-460990 -24794,-143432 -74886,-229366 -100433,-375685 485847,70994 1468590,443038 2328930,583457 -69739,124537 -141298,134267 -228864,252778 -243237,329611 -285733,839751 -107024,1208593 221770,457601 671022,682259 941628,1063153 360808,507755 120960,1114248 -543534,1096798 -808930,-21154 -230935,-1013815 -347815,-1402556 -354593,-182663 -643905,149584 -766685,348756 -612205,993916 98990,2058387 1428731,1822933 635557,-112548 1251529,-557155 1375062,-1126363 249829,-1151220 -587097,-1417746 -723938,-1716410 236082,-148328 390122,-119265 562114,-415356 171051,-294208 102631,-531357 26992,-848288 1336709,92839 2286999,248825 3688676,137406 343796,-27242 926625,-122592 1229746,-108594 -68545,120332 -263010,316366 -464882,677802 -264768,474486 -475804,1167038 -509763,1753759 -17450,299669 -10922,423767 -296405,540709 -14249,5838 -88695,26992 -98990,27996 -68232,6277 38165,6905 -54234,189 -76706,-5399 -56996,-8412 -82355,-18204 148516,-246125 196912,-717535 -9102,-1009044 -191201,-270606 -566760,-298853 -872203,-148579 -418369,205512 -522946,829519 -275377,1230061 68797,111293 176010,208839 260688,253908 -1311474,695189 -1341918,-1101505 -415795,-1557411 357481,-175884 691862,-59005 1013940,-186556 -28435,-283536 -426592,-369407 -751934,-382526 -966422,-38855 -1678999,521125 -1790668,1539898 -146320,1335140 1300050,1750119 2180037,1102197 95098,-69990 243363,-180028 313478,-249578 571091,89323 823368,-88444 947089,-186242 273619,581511 910745,842638 1541531,649115 278201,-85305 533867,-304313 682258,-481642 131882,-157492 260813,-387799 282156,-605677 8976,-91269 15441,-207207 -48711,-260186 -227105,-119955 -471787,729588 -1196227,686213 -153475,-9102 -263136,-68609 -333502,-156551 -53481,-67039 -122780,-239660 -136213,-339717 -54862,-408639 46074,-469527 262634,-719732 465070,-537446 1389687,-1315994 1390817,-2057697 377,-244304 -64717,-253595 -124475,-427219 380455,-71999 1221210,-367085 1401174,-448248 326347,421319 774281,1498721 954120,2050415 85180,261441 296907,929890 313604,1187125 16948,261818 346245,951107 633673,739004 32264,-246879 -221895,-257487 -257549,-512588 136464,-65533 358736,-103761 443728,-250582 24481,-42245 22660,-20213 22598,-73505 -252,-211852 17136,-30821 -39044,-114808 -142741,-65471 -268472,96918 -432053,158810 -60699,-335260 453835,-1168984 663678,-1430237 80472,-100183 166469,-194904 239158,-278955 252465,-291948 422637,-255917 246752,-669327 -60699,-142616 -104074,-273556 -175193,-371165 -525708,-43626 -779177,-20840 -1266029,-163456 -447432,-131128 -675542,-210659 -1044572,-393009 296216,-189757 473105,-271108 610008,-352647 205952,-122529 377254,-219825 562993,-343923 235706,-157429 912000,-651061 836048,-942193 -201307,-14814 -747917,538199 -1035220,706802 -330050,193711 -745406,488547 -1195474,615093zm-13464382 3112124l237526 73630c173562,-246125 474172,-403680 713392,-553954 442097,-277824 409832,-153914 556716,-733730 114746,-452265 173374,-1206522 -95223,-1620685 -58817,-90578 -332373,-172495 -450382,-203064 -248448,-64215 -476181,104890 -630535,258491 -57247,56933 -107213,96479 -166155,157179 -166343,171176 -369031,529034 -499029,792484 -244493,495200 -240162,427282 -13120,883753 141800,285106 345932,561424 346810,945896zm10573149 -286864c70869,-45948 424709,-551380 505056,-643340 85243,-97546 527590,-593751 331180,-769572 -260751,-233508 -865864,940372 -836236,1412912zm-6266743 -1336143c34775,337080 332184,633296 501226,784324 328230,-266401 591366,-992347 -95851,-959330 -191954,9102 -293518,102442 -405375,175006zm10533038 1705237c174315,-437577 545543,-1172688 1137662,-1718231 -16572,-75764 -102505,-291132 -134456,-341851 -1007537,-123973 -1002453,-128492 -1998503,-463626 130752,141736 1025113,2438779 995297,2523708zm-13462122 -531168c-174441,31511 -941063,469652 -914260,681630 61265,483337 1617044,783006 1372112,162703l-457852 -844333zm-1601791 417427c30570,-297409 -278075,-832971 -483023,-1085750 -4143,-4771 -11863,-13747 -18580,-19836 -141360,35529 -461555,260437 -579376,345178 -199173,143306 -486664,241857 -271611,490493 244870,283034 925308,546107 1352590,269915zm8806396 334004c-198984,-3891 -192769,442662 43752,653509 184358,-169293 223716,-667632 -43752,-653509zm-9978582 -7462217c194465,15190 668072,27431 848727,83234 10357,3264 19773,7470 29126,10797 9604,3452 21405,9918 29126,12931 7909,3138 20024,8223 29125,14186 -60511,160191 -1073760,1514413 -942192,2100381 581761,256294 477750,-52854 873960,-975964 79971,-186430 149270,-331682 237086,-504679 69551,-136966 165402,-417364 250080,-514973 470406,74509 685334,343545 885009,172180 58126,-49902 134141,-141297 141234,-243614 -114996,-99052 -984751,-356163 -1186999,-430044 -261504,-95600 -736869,-114369 -1007475,47141 -129936,77648 -166469,87628 -186807,228424zm1712519 1381527c-149709,201620 -558348,932652 -427094,1258370 108280,82356 277260,84867 387109,3767 183793,-130062 9981,-468460 389557,-968118 96855,14814 152345,24418 231813,94282 -124224,203441 -382338,596325 -274435,917650 53607,159815 239974,214174 425211,190384 194276,-24794 293078,-76141 426404,-190070 159061,230432 46199,350325 437953,461429 343671,97358 499532,-34838 712200,-168854 83925,588102 433810,282030 764425,241480 -24418,261567 -125291,449817 -162577,721930 -41115,300296 94596,532675 383845,398219 99304,-107087 285859,-1343864 623881,-1787530 388490,-509826 843015,-267969 475491,348442 -163268,273807 -282470,188313 -547175,284478 -39170,249327 4456,288370 180278,377003 116880,58942 318312,85619 497649,83297 446490,-5649 594127,-208274 808553,-356414 116503,209844 48271,525268 501226,435819 387611,-76580 472603,-323082 599087,-393888 58691,123094 40989,570463 494196,451889 360682,-94471 418746,-242485 638444,-386984 157053,251900 316931,416988 678492,427534 361184,10483 523322,-127928 745343,-355975l453018 -15441c165088,166845 204822,224281 484341,234889 374053,14312 901518,-151153 846970,-588416 -24669,-197477 -200365,-292324 -286927,-424771 262007,-212731 321702,-520748 163017,-689979 -333565,-355849 -1632674,244995 -584775,1039613 104765,79406 222460,131757 243300,287366 -726323,179965 -463124,-466514 -671712,-468837 -245309,51598 -59821,241481 -433622,268911 196096,-713957 -262195,-821358 -557030,-653069 -226164,129120 -316115,481077 -65157,785516 53921,65345 47079,47769 90956,119893 -462058,186869 -723436,-120771 -558600,-592496 201935,-577995 692427,-276820 885385,-517547 34587,-72877 -139728,-131568 -273618,-159187 -1046456,-217501 -1189888,896433 -1230500,961840 -84490,135900 -365579,319254 -544602,327477 -65344,-299167 -18078,-665687 45949,-955061l375559 -7721c86121,-101187 100684,-127237 88005,-289312l-351895 -32892c73819,-211915 212731,-348190 -27305,-523887 -233006,-26238 -301301,179149 -378949,365893 -140356,337582 -314608,-53481 -342981,409957l150525 87001c4771,2322 15505,5398 22221,10043 -76015,384849 -14751,452328 -190635,585465 -140858,106523 -266149,315613 -513844,278013 -97169,-417239 423014,-767187 106836,-1331812 -200365,-221205 -337959,229051 -421695,543345 -72250,271046 -188062,409519 -479759,627522 -149897,98990 -303686,171177 -548179,173625 91332,-121274 627019,-352710 575171,-975713 -40739,-490116 -677614,-537508 -955940,-311344 -104137,-157618 -43689,-308268 -323585,-275314 -204006,79845 -326346,816651 -636309,1017895 -103384,67165 -242485,179525 -375936,163519 -67667,-538513 294835,-916708 306197,-943260 69236,-161636 -93089,-364323 -209341,-389118 -189443,-40487 -68923,53607 -258743,8474 -91959,-21844 -134832,-67353 -249138,-87063 -721741,-124601 -1047271,687468 -1174822,775536 -121838,84050 -289688,171867 -435882,198670 -24983,-376689 640327,-742958 283286,-1137097 -246063,-20526 -233132,66851 -528783,-11361 -68421,-226918 -41806,-415545 -280147,-451387 -372609,-56054 -277323,238342 -220201,473482zm2561057 473042c-231374,-43375 -503109,125919 -617666,248448 -126547,135083 -340721,497272 -159125,661669 192519,174315 494761,-86938 573162,-246313 11424,-23163 203504,-661732 203629,-663804zm7936516 368780c46701,99555 -13245,203880 -145315,319316 -120834,-94094 -283474,-173687 -221833,-314797 33520,-96541 303372,-132321 367148,-4519zm-1646295 484592c-116817,18329 -67103,278892 93089,377693 90390,-118009 61955,-413535 -93089,-377693zm-2790674 -1759597c195971,-46262 422951,255855 357795,462309 -85620,271359 -387109,488609 -429354,404998 -212354,-393825 -209404,-691987 71559,-867307zm7331905 427534c-205826,82606 -329422,282846 -383594,490241 -59255,226855 -14688,604485 169922,666440 234073,78526 397528,-246188 401295,-440464 1946,-99492 -154229,-554770 -187623,-716217zm1339471 -1616542c-222963,230118 -158058,688158 -38228,953868 136276,-538575 293957,-1115190 38228,-953868z"/>
  <path class="fil1" d="M20156148 7625485c203316,-429479 535311,-986321 1008354,-1422140 -16572,-75764 -102505,-291132 -134456,-341851 -893733,-110037 -990777,-125981 -1696449,-362126 354593,663113 605301,1379142 822551,2126117zm-14444425 586846c296467,394202 1530985,580067 1310847,22410l-369157 -680752c-354907,163330 -662108,392005 -941690,658342zm-748796 -404496c25109,-244368 -178772,-649366 -365955,-926375 -368905,167913 -675730,411464 -948219,697261 271485,266400 907481,492062 1314174,229114z"/>
  <path class="fil2" d="M8083462 12773022l-92398 0 0 103509c0,151969 85745,407384 449001,407384 248761,0 455592,-158622 455592,-438204 0,-231060 -116629,-330176 -319065,-400605l-233383 -81414c-136464,-46199 -231123,-129999 -231123,-303874 0,-244305 160694,-325719 336767,-325719 222334,0 319253,140795 319253,352208l92399 0c0,-261943 -129873,-427031 -420440,-427031 -246565,0 -420503,156237 -420503,409455 0,213484 112297,314797 319253,385289l178332 61515c176073,61641 286111,132008 286111,336829 0,200240 -145315,356603 -363193,356603 -226729,0 -356603,-154166 -356603,-354343l0 -81602z"/>
  <polygon class="fil2" points="10055351,13257426 10155722,13257426 10456960,11879037 10375797,11879037 10111343,13141613 10107576,13141613 9846888,11879037 9748338,11879037 9489784,13141613 9485892,13141613 9221438,11879037 9140275,11879037 9439567,13257426 9536109,13257426 9796672,11994850 9800563,11994850 "/>
  <polygon class="fil2" points="10721854,13257426 10803017,13257426 10803017,11879037 10721854,11879037 "/>
  <polygon class="fil2" points="12112043,13257426 12193081,13257426 12193081,11879037 12059818,11879037 11677605,13118451 11673839,13118451 11281897,11879037 11150642,11879037 11150642,13257426 11231680,13257426 11231680,11983300 11235572,11983300 11631280,13257426 11712443,13257426 12108151,11983300 12112043,11983300 "/>
  <polygon class="fil2" points="13359429,13257426 13459800,13257426 13761038,11879037 13679937,11879037 13415483,13141613 13411654,13141613 13151029,11879037 13052478,11879037 12793925,13141613 12789970,13141613 12525516,11879037 12444416,11879037 12743645,13257426 12840250,13257426 13100749,11994850 13104704,11994850 "/>
  <polygon class="fil2" points="14025994,13257426 14701598,13257426 14701598,13183921 14107094,13183921 14107094,12575921 14645732,12575921 14645732,12502667 14107094,12502667 14107094,11952354 14684336,11952354 14684336,11879037 14025994,11879037 "/>
  <path class="fil2" d="M15564951 12763167l-484592 0 243300 -803030 3892 0 237400 803030zm146821 494259l80975 0 -413096 -1378389 -102317 0 -428538 1378389 81101 0 131254 -428601 519242 0 131379 428601z"/>
  <path class="fil2" d="M16028640 13257426l81163 0 0 -638946 297284 0c221895,0 275941,113804 275941,310716l0 140984c0,81037 13496,146633 34838,187246l92650 0c-34838,-56055 -46325,-106209 -46325,-185300l0 -144938c0,-189130 -40550,-328105 -266400,-341663l0 -3829c179525,-19334 276067,-160192 276067,-341663 0,-250958 -150588,-360996 -341788,-360996l-403430 0 0 1378389zm81163 -704668l0 -608062 310780 0c167849,0 272175,110037 272175,295337 0,262634 -171867,312725 -324401,312725l-258554 0z"/>
  <path class="fil0" d="M51912 11067157l24697756 0c28561,0 51912,-23225 51912,-51849l0 0c0,-28686 -23351,-51912 -51912,-51912l-24697756 0c-28561,0 -51912,23226 -51912,51912l0 0c0,28624 23351,51849 51912,51849z"/>
 </g>
</svg>
