<?xml version="1.0" encoding="UTF-8"?>
<!DOCTYPE svg PUBLIC "-//W3C//DTD SVG 1.1//EN" "http://www.w3.org/Graphics/SVG/1.1/DTD/svg11.dtd">
<!-- Creator: CorelDRAW X8 -->
<svg xmlns="http://www.w3.org/2000/svg" xml:space="preserve" width="66px" height="66px" version="1.1" style="shape-rendering:geometricPrecision; text-rendering:geometricPrecision; image-rendering:optimizeQuality; fill-rule:evenodd; clip-rule:evenodd"
viewBox="0 0 353145 353138"
 xmlns:xlink="http://www.w3.org/1999/xlink">
 <defs>
  <style type="text/css">
   <![CDATA[
    .fil0 {fill:#F50000}
    .fil1 {fill:white;fill-rule:nonzero}
   ]]>
  </style>
 </defs>
 <g id="Layer_x0020_1">
  <metadata id="CorelCorpID_0Corel-Layer"/>
  <path class="fil0" d="M176569 0c97515,0 176576,79061 176576,176575 0,97503 -79061,176563 -176576,176563 -97515,0 -176569,-79060 -176569,-176563 0,-97514 79054,-176575 176569,-176575z"/>
  <path class="fil1" d="M220677 154291l0 -49205 -8915 0 0 37596c-1981,2802 -3855,4183 -5634,4183 -1199,0 -1893,-712 -2089,-2094 -113,-284 -113,-1376 -113,-3470l0 -36215 -8890 0 0 38909c0,3464 303,5817 801,7306 884,2505 2865,3659 5736,3659 3249,0 6637,-1968 10189,-6044l0 5375 8915 0zm-41893 -14258c0,4549 -1376,6832 -4246,6832 -2884,0 -4265,-2283 -4265,-6832l0 -20695c0,-4561 1381,-6820 4265,-6820 2870,0 4246,2259 4246,6820l0 20695zm8921 -1679l0 -17243c0,-5255 -902,-9091 -2770,-11590 -2467,-3356 -5930,-5041 -10397,-5041 -4442,0 -7925,1685 -10385,5041 -1899,2499 -2795,6335 -2795,11590l0 17243c0,5231 896,9105 2795,11571 2460,3357 5943,5035 10385,5035 4467,0 7930,-1678 10397,-5035 1868,-2466 2770,-6340 2770,-11571zm-26429 -50095l-9994 0 -6745 25931 -7015 -25931 -10411 0c2082,6114 4259,12272 6341,18392 3167,9205 5148,16145 6044,20896l0 26744 9887 0 0 -26744 11893 -39288z"/>
  <path class="fil1" d="M249560 213995c0,11395 -6,23464 -2561,34518 -1779,7767 -8133,13489 -15780,14347 -18101,2019 -36429,2025 -54669,2019 -18240,6 -36562,0 -54663,-2019 -7653,-858 -14000,-6580 -15779,-14347 -2536,-11054 -2536,-23123 -2536,-34518 0,-11388 19,-23445 2568,-34511 1779,-7754 8132,-13489 15779,-14341 18101,-2025 36423,-2025 54663,-2025 18240,0 36568,0 54669,2025 7653,852 14000,6587 15779,14341 2543,11066 2530,23123 2530,34511zm-104348 -23798l0 -9211 -30769 0 0 9211 10378 0 0 56139 9817 0 0 -56139 10574 0zm59282 12347c-1174,-3640 -3533,-5495 -7054,-5495 -3237,0 -6265,1785 -9110,5287l0 -21350 -8821 0 0 65350 8821 0 0 -4706c2946,3640 5968,5381 9110,5381 3521,0 5880,-1848 7054,-5470 586,-2069 889,-5312 889,-9811l0 -19394c0,-4606 -303,-7830 -889,-9792zm-7925 29874c0,4410 -1299,6568 -3842,6568 -1451,0 -2927,-694 -4397,-2158l0 -29684c1470,-1452 2946,-2146 4397,-2146 2543,0 3842,2253 3842,6644l0 20776zm28978 -35369c-4504,0 -8025,1659 -10567,4990 -1881,2467 -2726,6278 -2726,11483l0 17054c0,5161 959,9009 2833,11451 2549,3319 6057,4984 10681,4984 4606,0 8221,-1741 10669,-5280 1066,-1565 1760,-3332 2057,-5281 82,-890 196,-2858 196,-5685l0 -1293 -9010 0c0,3546 -107,5495 -189,5975 -505,2366 -1779,3539 -3944,3539 -3028,0 -4504,-2240 -4504,-6757l0 -8625 17647 0 0 -10082c0,-5205 -890,-9016 -2739,-11483 -2467,-3331 -5981,-4990 -10404,-4990zm-75 7949c2915,0 4391,2253 4391,6758l0 4498 -8820 0 0 -4498c0,-4505 1476,-6758 4429,-6758zm-70159 -7350l-8813 0 0 38499c0,3438 290,5760 776,7249 870,2467 2839,3615 5684,3615 3243,0 6574,-1968 10076,-5981l0 5306 8833 0 0 -48688 -8833 0 0 37212c-1950,2763 -3811,4126 -5577,4126 -1180,0 -1849,-694 -2063,-2063 -83,-278 -83,-1363 -83,-3432l0 -35843z"/>
 </g>
</svg>
